%YAML 1.1
%TAG !u! tag:unity3d.com,2011:
--- !u!1001 &850354457132921401
PrefabInstance:
  m_ObjectHideFlags: 0
  serializedVersion: 2
  m_Modification:
    m_TransformParent: {fileID: 0}
    m_Modifications:
    - target: {fileID: -6057140222963153312, guid: 82a2914d8f86c62488456950c8330e38,
        type: 3}
      propertyPath: m_Controller
      value: 
      objectReference: {fileID: 9100000, guid: b9deb544997e64ee89ca476d244aea05, type: 2}
    - target: {fileID: -4216859302048453862, guid: 82a2914d8f86c62488456950c8330e38,
        type: 3}
      propertyPath: m_RootOrder
      value: 0
      objectReference: {fileID: 0}
    - target: {fileID: -4216859302048453862, guid: 82a2914d8f86c62488456950c8330e38,
        type: 3}
      propertyPath: m_LocalPosition.x
      value: 1
      objectReference: {fileID: 0}
    - target: {fileID: -4216859302048453862, guid: 82a2914d8f86c62488456950c8330e38,
        type: 3}
      propertyPath: m_LocalPosition.y
      value: 0
      objectReference: {fileID: 0}
    - target: {fileID: -4216859302048453862, guid: 82a2914d8f86c62488456950c8330e38,
        type: 3}
      propertyPath: m_LocalPosition.z
      value: 0
      objectReference: {fileID: 0}
    - target: {fileID: -4216859302048453862, guid: 82a2914d8f86c62488456950c8330e38,
        type: 3}
      propertyPath: m_LocalRotation.w
      value: 0
      objectReference: {fileID: 0}
    - target: {fileID: -4216859302048453862, guid: 82a2914d8f86c62488456950c8330e38,
        type: 3}
      propertyPath: m_LocalRotation.x
      value: 0
      objectReference: {fileID: 0}
    - target: {fileID: -4216859302048453862, guid: 82a2914d8f86c62488456950c8330e38,
        type: 3}
      propertyPath: m_LocalRotation.y
      value: 1
      objectReference: {fileID: 0}
    - target: {fileID: -4216859302048453862, guid: 82a2914d8f86c62488456950c8330e38,
        type: 3}
      propertyPath: m_LocalRotation.z
      value: 0
      objectReference: {fileID: 0}
    - target: {fileID: -4216859302048453862, guid: 82a2914d8f86c62488456950c8330e38,
        type: 3}
      propertyPath: m_LocalEulerAnglesHint.x
      value: 0
      objectReference: {fileID: 0}
    - target: {fileID: -4216859302048453862, guid: 82a2914d8f86c62488456950c8330e38,
        type: 3}
      propertyPath: m_LocalEulerAnglesHint.y
      value: 180
      objectReference: {fileID: 0}
    - target: {fileID: -4216859302048453862, guid: 82a2914d8f86c62488456950c8330e38,
        type: 3}
      propertyPath: m_LocalEulerAnglesHint.z
      value: 0
      objectReference: {fileID: 0}
    - target: {fileID: -927199367670048503, guid: 82a2914d8f86c62488456950c8330e38,
        type: 3}
      propertyPath: m_Name
      value: JammoSword2_LowPoly
      objectReference: {fileID: 0}
    m_RemovedComponents: []
  m_SourcePrefab: {fileID: 100100000, guid: 82a2914d8f86c62488456950c8330e38, type: 3}
--- !u!4 &6377713513226608192 stripped
Transform:
  m_CorrespondingSourceObject: {fileID: -3220319501169496967, guid: 82a2914d8f86c62488456950c8330e38,
    type: 3}
  m_PrefabInstance: {fileID: 850354457132921401}
  m_PrefabAsset: {fileID: 0}
--- !u!1001 &850354458880638225
PrefabInstance:
  m_ObjectHideFlags: 0
  serializedVersion: 2
  m_Modification:
    m_TransformParent: {fileID: 6377713513226608192}
    m_Modifications:
    - target: {fileID: -8679921383154817045, guid: 7b4a9c6ad2e8e1a4486e35586a31e28b,
        type: 3}
      propertyPath: m_RootOrder
      value: 4
      objectReference: {fileID: 0}
    - target: {fileID: -8679921383154817045, guid: 7b4a9c6ad2e8e1a4486e35586a31e28b,
        type: 3}
      propertyPath: m_LocalScale.x
      value: 0.022501785
      objectReference: {fileID: 0}
    - target: {fileID: -8679921383154817045, guid: 7b4a9c6ad2e8e1a4486e35586a31e28b,
        type: 3}
      propertyPath: m_LocalScale.y
      value: 0.029047618
      objectReference: {fileID: 0}
    - target: {fileID: -8679921383154817045, guid: 7b4a9c6ad2e8e1a4486e35586a31e28b,
        type: 3}
      propertyPath: m_LocalScale.z
      value: 0.035714284
      objectReference: {fileID: 0}
    - target: {fileID: -8679921383154817045, guid: 7b4a9c6ad2e8e1a4486e35586a31e28b,
        type: 3}
      propertyPath: m_LocalPosition.x
      value: -0.02119
      objectReference: {fileID: 0}
    - target: {fileID: -8679921383154817045, guid: 7b4a9c6ad2e8e1a4486e35586a31e28b,
        type: 3}
      propertyPath: m_LocalPosition.y
      value: 0.00434
      objectReference: {fileID: 0}
    - target: {fileID: -8679921383154817045, guid: 7b4a9c6ad2e8e1a4486e35586a31e28b,
        type: 3}
      propertyPath: m_LocalPosition.z
      value: 0.00088
      objectReference: {fileID: 0}
    - target: {fileID: -8679921383154817045, guid: 7b4a9c6ad2e8e1a4486e35586a31e28b,
        type: 3}
      propertyPath: m_LocalRotation.w
      value: 0
      objectReference: {fileID: 0}
    - target: {fileID: -8679921383154817045, guid: 7b4a9c6ad2e8e1a4486e35586a31e28b,
        type: 3}
      propertyPath: m_LocalRotation.x
      value: -0.7071068
      objectReference: {fileID: 0}
    - target: {fileID: -8679921383154817045, guid: 7b4a9c6ad2e8e1a4486e35586a31e28b,
        type: 3}
      propertyPath: m_LocalRotation.y
      value: 0.7071068
      objectReference: {fileID: 0}
    - target: {fileID: -8679921383154817045, guid: 7b4a9c6ad2e8e1a4486e35586a31e28b,
        type: 3}
      propertyPath: m_LocalRotation.z
      value: -0
      objectReference: {fileID: 0}
    - target: {fileID: -8679921383154817045, guid: 7b4a9c6ad2e8e1a4486e35586a31e28b,
        type: 3}
      propertyPath: m_LocalEulerAnglesHint.x
      value: 0
      objectReference: {fileID: 0}
    - target: {fileID: -8679921383154817045, guid: 7b4a9c6ad2e8e1a4486e35586a31e28b,
        type: 3}
      propertyPath: m_LocalEulerAnglesHint.y
      value: 180
      objectReference: {fileID: 0}
    - target: {fileID: -8679921383154817045, guid: 7b4a9c6ad2e8e1a4486e35586a31e28b,
        type: 3}
      propertyPath: m_LocalEulerAnglesHint.z
      value: -90
      objectReference: {fileID: 0}
    - target: {fileID: 919132149155446097, guid: 7b4a9c6ad2e8e1a4486e35586a31e28b,
        type: 3}
      propertyPath: m_Name
      value: Stylized sword_2
      objectReference: {fileID: 0}
    m_RemovedComponents: []
  m_SourcePrefab: {fileID: 100100000, guid: 7b4a9c6ad2e8e1a4486e35586a31e28b, type: 3}
--- !u!4 &884862367199042298 stripped
Transform:
  m_CorrespondingSourceObject: {fileID: -8679921383154817045, guid: 7b4a9c6ad2e8e1a4486e35586a31e28b,
    type: 3}
  m_PrefabInstance: {fileID: 850354458880638225}
  m_PrefabAsset: {fileID: 0}
--- !u!1001 &2584654843656795562
PrefabInstance:
  m_ObjectHideFlags: 0
  serializedVersion: 2
  m_Modification:
    m_TransformParent: {fileID: 884862367199042298}
    m_Modifications:
    - target: {fileID: 1010469353794949302, guid: 60d310309985b9d4e9917e6e851e63c9,
        type: 3}
      propertyPath: m_LocalPosition.z
      value: -3
      objectReference: {fileID: 0}
    - target: {fileID: 1010469353794949302, guid: 60d310309985b9d4e9917e6e851e63c9,
        type: 3}
      propertyPath: m_LocalRotation.w
      value: 0
      objectReference: {fileID: 0}
    - target: {fileID: 1010469353794949302, guid: 60d310309985b9d4e9917e6e851e63c9,
        type: 3}
      propertyPath: m_LocalRotation.x
      value: 0
      objectReference: {fileID: 0}
    - target: {fileID: 1010469353794949302, guid: 60d310309985b9d4e9917e6e851e63c9,
        type: 3}
      propertyPath: m_LocalRotation.y
      value: 0
      objectReference: {fileID: 0}
    - target: {fileID: 1010469353794949302, guid: 60d310309985b9d4e9917e6e851e63c9,
        type: 3}
      propertyPath: m_LocalRotation.z
      value: 1
      objectReference: {fileID: 0}
    - target: {fileID: 1010469353794949302, guid: 60d310309985b9d4e9917e6e851e63c9,
        type: 3}
      propertyPath: m_LocalEulerAnglesHint.x
      value: 0
      objectReference: {fileID: 0}
    - target: {fileID: 1010469353794949302, guid: 60d310309985b9d4e9917e6e851e63c9,
        type: 3}
      propertyPath: m_LocalEulerAnglesHint.y
      value: 0
      objectReference: {fileID: 0}
    - target: {fileID: 1010469353794949302, guid: 60d310309985b9d4e9917e6e851e63c9,
        type: 3}
      propertyPath: m_LocalEulerAnglesHint.z
      value: 180
      objectReference: {fileID: 0}
    - target: {fileID: 3662496979572467538, guid: 60d310309985b9d4e9917e6e851e63c9,
        type: 3}
      propertyPath: m_RootOrder
      value: 0
      objectReference: {fileID: 0}
    - target: {fileID: 3662496979572467538, guid: 60d310309985b9d4e9917e6e851e63c9,
        type: 3}
      propertyPath: m_LocalPosition.x
      value: 0
      objectReference: {fileID: 0}
    - target: {fileID: 3662496979572467538, guid: 60d310309985b9d4e9917e6e851e63c9,
        type: 3}
      propertyPath: m_LocalPosition.y
      value: 0
      objectReference: {fileID: 0}
    - target: {fileID: 3662496979572467538, guid: 60d310309985b9d4e9917e6e851e63c9,
        type: 3}
      propertyPath: m_LocalPosition.z
      value: 0
      objectReference: {fileID: 0}
    - target: {fileID: 3662496979572467538, guid: 60d310309985b9d4e9917e6e851e63c9,
        type: 3}
      propertyPath: m_LocalRotation.w
      value: 0.7071068
      objectReference: {fileID: 0}
    - target: {fileID: 3662496979572467538, guid: 60d310309985b9d4e9917e6e851e63c9,
        type: 3}
      propertyPath: m_LocalRotation.x
      value: 0.7071068
      objectReference: {fileID: 0}
    - target: {fileID: 3662496979572467538, guid: 60d310309985b9d4e9917e6e851e63c9,
        type: 3}
      propertyPath: m_LocalRotation.y
      value: 0
      objectReference: {fileID: 0}
    - target: {fileID: 3662496979572467538, guid: 60d310309985b9d4e9917e6e851e63c9,
        type: 3}
      propertyPath: m_LocalRotation.z
      value: 0
      objectReference: {fileID: 0}
    - target: {fileID: 3662496979572467538, guid: 60d310309985b9d4e9917e6e851e63c9,
        type: 3}
      propertyPath: m_LocalEulerAnglesHint.x
      value: 90
      objectReference: {fileID: 0}
    - target: {fileID: 3662496979572467538, guid: 60d310309985b9d4e9917e6e851e63c9,
        type: 3}
      propertyPath: m_LocalEulerAnglesHint.y
      value: 0
      objectReference: {fileID: 0}
    - target: {fileID: 3662496979572467538, guid: 60d310309985b9d4e9917e6e851e63c9,
        type: 3}
      propertyPath: m_LocalEulerAnglesHint.z
      value: 0
      objectReference: {fileID: 0}
    - target: {fileID: 6445826192643391251, guid: 60d310309985b9d4e9917e6e851e63c9,
        type: 3}
      propertyPath: m_Name
      value: white-red bolder
      objectReference: {fileID: 0}
    m_RemovedComponents: []
  m_SourcePrefab: {fileID: 100100000, guid: 60d310309985b9d4e9917e6e851e63c9, type: 3}
