%YAML 1.1
%TAG !u! tag:unity3d.com,2011:
--- !u!1045 &1
EditorBuildSettings:
  m_ObjectHideFlags: 0
  serializedVersion: 2
  m_Scenes:
  - enabled: 1
    path: Assets/Scenes/DemoScene.unity
    guid: f369ef55eb27b40f0a00cbb86db38f9d
  m_configObjects: {}
